{
  "connection": "default",
  "collectionName": "video",
  "info": {
    "name": "video",
    "description": ""
  },
  "options": {
    "timestamps": true
  },
  "attributes": {
    "title": {
      "required": true,
      "type": "string"
    },
    "subTitle": {
      "type": "string"
    },
    "vignette": {
      "model": "file",
      "via": "related",
      "plugin": "upload"
    },
    "videoUrl": {
      "type": "string"
    },
    "categories": {
      "collection": "categorie",
      "via": "videos",
      "dominant": true
    }
  }
}